85,25,,,,,,,,,,,,,,,,,,,,,,,
6,6,6,6,6,6,6,6,6,6,6,6,6,6,6,6,6,6,6,6,6,6,6,6,6
6,0,0,0,0,0,0,0,0,0,0,0,6,0,0,0,0,0,0,0,0,0,0,0,6
6,0,0,0,0,0,0,0,0,0,0,0,6,0,0,0,0,0,0,0,0,0,0,0,6
6,6,6,0,0,0,6,0,0,0,0,0,6,0,0,0,0,0,3,0,0,0,0,0,6
6,0,0,0,0,0,6,0,0,0,0,0,6,0,0,0,0,0,0,0,0,0,0,0,6
6,0,0,0,0,0,6,0,0,0,0,0,6,0,0,0,0,0,0,0,0,0,0,0,6
6,0,0,3,0,0,6,0,0,0,0,0,6,6,6,6,6,0,0,0,0,0,0,0,6
6,0,0,0,0,0,6,0,0,0,0,0,6,0,0,0,0,0,0,0,0,0,0,0,6
6,0,0,0,0,0,6,0,0,0,0,0,6,0,0,0,0,0,0,0,0,0,0,0,6
6,6,6,6,6,6,6,0,0,0,0,0,6,0,0,0,0,0,0,0,0,0,0,0,6
6,0,0,0,0,0,0,0,0,6,6,6,6,0,0,0,0,0,0,0,0,0,0,0,6
6,0,0,0,0,0,0,0,0,6,0,0,6,0,0,0,0,0,0,0,0,0,0,0,6
6,0,21,0,0,0,0,0,0,6,0,0,6,0,0,0,0,0,0,0,21,0,0,0,6
6,0,0,0,0,0,0,0,0,6,0,0,6,0,0,0,0,0,0,0,0,0,0,0,6
6,0,0,0,6,6,6,6,6,6,4,4,6,0,0,0,0,0,0,0,0,0,0,0,6
6,0,0,0,6,0,0,0,0,0,0,0,6,0,0,0,0,0,0,0,0,0,0,0,6
6,0,0,0,6,0,0,0,0,0,0,0,6,0,0,0,0,0,0,0,0,0,0,0,6
6,0,0,0,6,0,0,0,0,0,0,0,6,0,0,0,0,0,0,0,0,0,0,0,6
6,0,0,0,6,0,0,0,0,6,6,6,6,0,0,0,0,0,0,0,0,0,0,0,6
6,0,0,0,6,0,0,0,0,6,4,0,6,0,0,0,0,0,0,0,0,0,0,0,6
6,0,21,0,6,0,14,0,0,6,0,0,6,0,0,0,0,0,0,0,0,21,0,0,6
6,0,0,0,6,0,0,0,0,6,0,0,6,0,0,0,0,0,0,0,0,0,0,0,6
6,0,0,0,6,0,0,0,0,6,4,0,6,0,0,0,0,0,0,0,0,0,0,0,6
6,0,0,0,6,0,0,0,0,6,6,6,6,0,0,0,0,6,0,0,0,0,0,0,6
6,0,0,0,6,0,0,0,0,0,0,0,6,0,0,0,6,6,6,0,0,0,0,0,6
6,0,0,0,6,0,0,0,0,0,0,0,6,0,0,0,0,6,0,0,0,0,0,0,6
6,0,0,0,6,6,6,6,6,0,0,0,6,0,0,0,0,0,0,0,0,0,0,0,6
6,0,0,0,0,0,0,0,0,0,0,0,6,0,0,0,0,0,0,0,0,0,0,0,6
6,0,0,0,0,0,0,0,0,0,0,0,6,0,0,0,0,0,0,0,0,0,0,0,6
6,0,0,0,0,0,0,0,0,0,0,0,6,0,0,6,0,0,0,0,0,6,0,0,6
6,0,0,0,0,0,0,0,0,0,0,0,6,0,0,6,0,0,0,0,0,6,0,0,6
6,0,0,0,0,0,0,0,0,0,0,0,6,0,0,0,0,0,0,15,0,0,0,0,6
6,7,7,7,7,7,7,7,7,7,7,7,6,0,0,0,0,0,0,0,0,0,0,0,6
6,0,0,0,0,4,4,4,0,0,0,0,6,0,0,0,0,0,0,0,6,0,0,0,6
6,0,0,0,0,0,0,0,0,0,0,0,6,0,0,0,0,0,0,6,0,0,0,0,6
6,0,0,0,0,0,0,0,0,0,0,0,6,0,0,0,0,0,6,0,0,0,0,0,6
6,0,21,0,0,0,0,0,0,0,0,0,6,0,0,0,0,0,0,0,0,0,21,0,6
6,0,0,0,0,0,0,0,0,0,0,0,6,0,0,0,0,0,0,0,0,0,0,0,6
6,0,0,0,6,0,0,0,6,0,0,0,6,0,0,0,0,0,0,0,0,0,0,0,6
6,0,0,0,6,6,0,0,6,0,0,0,6,0,0,0,0,0,0,0,0,0,0,0,6
6,0,0,0,6,0,6,0,6,0,0,0,6,0,0,0,0,0,0,0,0,0,0,0,6
6,0,0,0,6,0,0,6,6,0,0,0,6,0,0,0,0,0,0,0,0,0,0,0,6
6,0,14,0,6,0,0,0,6,0,0,0,6,0,0,0,0,0,0,0,0,0,0,0,6
6,0,0,0,6,0,0,0,6,0,0,0,6,0,0,0,0,0,0,0,0,0,0,0,6
6,0,0,0,6,0,0,0,6,0,0,0,6,0,0,0,0,0,0,0,0,0,0,0,6
6,0,0,0,6,0,0,0,6,0,0,0,6,0,0,0,0,0,0,0,0,0,0,0,6
6,0,0,0,0,0,0,0,6,0,0,0,6,0,0,0,0,6,6,6,0,0,0,0,6
6,0,0,0,0,0,0,0,6,0,0,0,6,0,0,0,0,6,6,6,0,0,0,0,6
6,0,0,0,0,0,0,0,6,0,0,0,6,0,0,0,0,6,6,6,0,0,0,0,6
6,6,6,6,6,0,0,0,6,0,0,0,6,0,0,0,0,0,0,0,0,0,0,0,6
6,0,0,0,0,0,0,0,6,0,0,0,6,0,0,0,0,0,0,0,0,0,0,0,6
6,0,0,0,0,0,0,0,6,0,0,0,6,0,0,0,0,0,0,0,0,0,0,0,6
6,0,0,0,0,0,0,0,6,0,0,0,6,0,0,0,0,0,0,0,0,0,0,0,6
6,0,0,0,6,6,6,6,6,0,0,0,6,0,0,0,0,0,0,0,0,0,0,0,6
6,0,0,0,6,0,0,0,6,0,0,0,6,0,0,0,0,0,0,0,0,0,0,0,6
6,0,14,0,6,0,0,0,6,0,0,0,6,0,0,0,0,0,0,0,0,0,0,0,6
6,0,0,0,6,0,0,0,6,0,0,0,6,0,0,0,0,0,0,0,0,0,0,0,6
6,0,0,0,6,0,0,0,6,0,0,0,6,4,4,4,6,6,6,4,4,4,6,6,6
6,0,0,0,6,0,0,0,6,0,0,0,6,0,0,0,0,0,0,0,0,0,0,0,6
6,0,21,0,6,0,0,0,6,0,0,0,6,0,0,0,0,0,0,0,0,21,0,0,6
6,0,0,0,6,0,0,0,6,0,0,0,6,0,0,0,0,0,0,0,0,0,0,0,6
6,0,0,0,6,0,0,0,6,0,0,0,6,0,0,0,0,0,0,0,0,0,0,0,6
6,0,0,0,0,0,0,0,0,0,0,0,6,0,0,0,0,0,0,0,0,0,0,0,6
6,0,0,0,0,0,0,0,0,0,0,0,6,0,0,0,0,0,0,0,0,0,0,0,6
6,6,6,6,6,0,0,0,6,6,6,6,6,6,6,6,6,0,0,0,6,6,6,6,6
6,0,0,0,0,0,0,0,0,0,0,0,6,0,0,0,0,0,0,0,0,0,0,0,6
6,0,0,0,0,0,0,0,0,0,0,0,6,0,0,0,0,0,0,0,0,0,0,0,6
6,0,0,0,0,0,0,0,0,0,0,0,6,0,0,0,0,0,0,0,0,0,0,0,6
6,0,0,0,6,6,6,6,6,6,0,0,6,0,0,0,0,0,0,0,0,0,0,0,6
6,0,0,0,6,0,0,0,0,6,0,0,6,0,0,0,0,0,0,0,0,0,0,0,6
6,0,0,0,6,0,0,0,0,6,0,0,6,0,0,0,0,0,0,0,0,0,0,0,6
6,0,0,0,6,0,0,0,0,6,0,0,6,0,0,0,0,0,0,0,0,0,0,0,6
6,0,0,0,6,0,0,0,0,6,0,0,6,0,0,0,0,0,0,0,0,0,0,0,6
6,0,0,0,6,0,0,0,0,6,0,0,6,0,0,0,0,0,0,0,0,0,0,0,6
6,0,0,0,0,0,0,0,0,6,0,0,6,0,0,0,0,0,0,0,0,0,0,0,6
6,0,0,0,0,0,0,0,0,6,0,0,6,0,0,0,0,0,0,0,0,0,0,0,6
6,6,6,6,6,6,6,6,6,6,0,0,6,0,0,0,0,0,0,0,0,0,0,0,6
6,0,0,0,0,0,0,0,0,0,0,0,6,0,0,0,0,0,0,0,0,0,0,0,6
6,0,0,0,0,0,0,0,0,0,0,0,6,0,0,0,0,0,0,0,0,0,0,0,6
6,0,0,0,0,0,0,0,0,0,0,0,6,0,0,0,0,0,0,0,0,0,0,0,6
6,0,0,21,0,0,1,0,0,0,0,0,6,0,0,0,0,0,2,0,0,21,0,0,6
6,0,0,0,0,0,0,0,0,0,0,0,6,0,0,0,0,0,0,0,0,0,0,0,6
6,0,0,0,0,0,0,0,0,0,0,0,6,0,0,0,0,0,0,0,0,0,0,0,6
6,0,0,0,0,0,0,0,0,0,0,0,6,0,0,0,0,0,0,0,0,0,0,0,6
6,6,6,6,6,6,6,6,6,6,6,6,6,6,6,6,6,6,6,6,6,6,6,6,6
