85,25,,,,,,,,,,,,,,,,,,,,,,,
8,8,8,8,8,8,8,8,8,8,8,8,8,8,8,8,8,8,8,8,8,8,8,8,8
8,0,0,0,0,0,0,0,0,21,0,0,8,0,0,0,0,0,0,0,0,0,0,0,8
8,0,0,0,0,0,0,0,0,21,0,0,8,0,0,0,0,0,8,0,0,0,0,8,8
8,0,0,0,0,0,0,0,0,21,0,0,8,0,0,0,0,0,7,0,0,0,0,0,8
8,0,0,0,0,0,0,0,0,21,0,0,8,0,0,0,0,0,7,0,0,3,0,0,8
8,0,0,0,0,0,0,0,0,21,0,0,8,0,0,0,0,0,7,0,0,0,0,0,8
8,0,0,7,0,0,7,7,7,7,7,7,8,0,0,0,0,0,7,0,0,0,0,0,8
8,0,0,7,0,0,0,0,0,0,0,0,8,0,0,7,7,7,7,7,7,7,7,7,8
8,0,0,7,0,0,0,0,0,0,0,0,8,0,0,7,0,0,0,0,0,0,0,0,8
8,0,0,7,0,0,0,0,0,3,0,0,8,0,0,7,0,0,0,0,0,0,0,0,8
8,0,0,7,0,0,0,0,0,0,0,0,8,0,0,7,0,0,0,0,0,0,0,0,8
8,0,0,7,0,0,0,0,0,0,0,0,8,0,0,7,0,0,0,0,0,0,0,0,8
8,0,0,7,0,0,0,0,0,0,0,0,8,0,0,7,0,0,7,0,0,0,0,0,8
8,0,0,7,8,8,8,8,8,8,8,8,8,0,0,7,0,0,7,0,0,0,0,0,8
8,0,0,7,0,0,0,0,4,0,0,0,8,0,0,7,0,0,7,0,0,0,0,0,8
8,0,0,7,0,0,0,0,4,0,0,0,8,0,0,7,0,0,7,0,0,0,0,0,8
8,0,0,7,0,0,0,0,4,0,0,0,8,0,0,7,0,0,7,7,7,7,7,7,8
8,0,0,7,0,0,0,0,4,4,4,4,8,0,0,0,0,0,0,0,0,0,0,0,8
8,0,0,7,0,0,0,0,0,0,0,0,8,0,0,0,0,0,0,0,0,0,0,0,8
8,0,0,7,0,0,0,0,0,0,14,0,8,0,0,0,0,0,0,0,0,0,0,0,8
8,0,0,0,0,0,0,0,0,0,0,0,8,0,0,0,0,0,0,0,0,0,0,0,8
8,0,0,0,0,7,7,7,7,7,7,7,8,0,0,0,0,0,0,0,0,0,0,0,8
8,0,0,0,0,0,0,0,0,0,0,0,8,0,0,0,0,0,0,0,0,0,0,0,8
8,0,0,0,0,0,0,0,0,0,0,0,8,0,0,0,0,0,0,0,0,0,0,0,8
8,0,0,0,0,0,0,0,0,0,0,0,8,0,0,0,0,0,0,0,0,0,0,0,8
8,0,0,0,0,0,0,0,0,0,0,0,8,0,0,0,0,0,0,0,0,0,0,0,8
8,0,0,0,0,0,0,0,0,0,0,0,8,0,0,0,0,0,0,0,0,0,0,0,8
8,0,0,0,0,0,0,0,0,0,0,0,8,0,0,0,0,0,0,0,0,0,0,0,8
8,0,0,0,0,0,0,0,0,0,0,0,8,0,0,0,0,0,0,7,0,0,0,0,8
8,0,0,0,0,0,0,0,0,0,0,0,8,0,0,0,0,0,7,7,0,0,0,0,8
8,0,0,0,0,0,0,0,0,0,0,0,8,0,0,0,0,7,0,7,0,0,0,0,8
8,0,0,0,0,0,0,0,0,0,0,0,8,0,0,0,7,0,0,7,0,0,0,0,8
8,0,0,0,0,0,0,0,0,0,0,0,8,0,0,7,0,0,0,7,0,0,0,0,8
8,0,0,0,0,0,0,0,0,0,0,0,8,0,0,0,0,15,0,7,0,0,0,0,8
8,4,0,0,0,0,0,0,0,0,0,0,8,0,0,0,0,0,0,7,0,0,0,0,8
8,7,0,0,0,0,0,0,0,0,0,0,8,7,7,0,0,0,7,7,0,0,0,0,8
8,8,8,8,8,8,8,8,8,8,8,8,8,0,0,0,0,7,0,0,0,0,0,0,8
8,8,8,0,14,0,4,0,14,0,8,8,8,0,0,0,7,0,0,0,0,0,0,0,8
8,8,8,0,0,0,4,0,0,0,8,8,8,0,0,7,0,0,0,0,0,0,0,0,8
8,8,0,7,7,7,7,7,7,7,0,8,8,0,0,7,15,0,7,0,0,0,0,0,8
8,0,0,0,0,0,0,0,0,0,0,0,8,0,0,7,0,0,7,0,0,0,0,0,8
8,4,4,4,4,4,4,4,4,4,4,4,8,0,0,7,7,7,7,0,0,7,0,0,8
8,0,0,0,0,0,0,0,0,0,0,0,8,0,0,7,0,0,0,0,0,7,0,0,8
8,0,0,0,0,0,0,0,0,0,0,0,8,0,0,7,0,0,0,0,0,7,0,0,8
8,0,0,0,7,7,7,7,7,0,0,0,8,21,0,7,0,0,7,0,0,7,0,0,8
8,0,0,0,7,0,0,0,7,0,0,0,8,0,0,7,0,0,7,0,0,7,0,0,8
8,0,21,0,7,0,14,0,7,0,0,0,8,7,7,7,0,0,7,0,0,7,0,0,8
8,0,0,0,7,0,0,0,4,0,0,0,8,0,0,7,0,0,7,0,0,7,0,0,8
8,7,7,7,7,0,0,0,4,0,0,0,8,0,0,7,0,0,7,0,0,7,0,0,8
8,0,0,0,0,0,0,0,7,7,7,4,8,0,0,7,0,0,7,7,7,7,0,0,8
8,0,0,0,0,0,0,0,7,0,0,0,8,0,0,0,0,0,7,0,0,0,0,0,8
8,0,7,7,7,7,7,7,7,0,0,0,8,0,0,0,0,7,7,0,0,0,0,0,8
8,0,7,0,0,0,0,0,0,0,0,0,8,0,0,0,7,7,7,0,0,0,0,0,8
8,0,7,0,7,7,7,7,7,7,7,7,8,0,0,7,0,0,0,0,0,0,0,0,8
8,0,7,0,0,0,0,0,0,0,0,0,8,0,0,7,0,0,0,0,0,0,0,0,8
8,0,7,7,7,0,0,0,0,0,0,0,8,0,0,7,0,0,7,0,0,0,0,0,8
8,0,7,0,0,0,0,0,0,0,0,0,8,0,0,7,0,0,7,0,0,0,0,0,8
8,0,7,21,7,7,7,7,7,0,7,7,8,0,0,7,0,0,7,0,0,15,0,0,8
8,0,7,0,7,0,0,0,7,0,0,0,8,0,0,7,0,21,7,0,0,0,0,0,8
8,0,7,7,7,0,21,0,7,0,0,0,8,0,0,7,0,0,7,7,7,7,7,7,8
8,0,0,0,0,0,0,0,7,7,7,0,8,0,0,0,7,0,7,0,0,0,0,0,8
8,0,0,0,0,0,0,0,7,0,0,0,8,0,0,0,0,7,7,0,0,0,0,0,8
8,0,0,0,0,0,0,0,7,0,0,0,8,7,7,7,0,0,7,0,0,7,0,0,8
8,0,0,0,0,0,0,0,7,0,7,0,8,0,0,7,0,0,7,0,0,7,0,0,8
8,0,0,0,0,0,0,0,7,0,7,0,8,21,0,7,0,0,7,0,0,7,0,0,8
8,0,0,0,0,0,0,0,7,0,7,0,8,0,0,7,0,0,7,0,0,7,0,0,8
8,0,0,7,7,7,7,7,7,0,0,0,8,0,0,7,0,0,7,0,0,7,0,0,8
8,0,0,7,0,0,0,0,0,0,0,0,8,0,0,7,0,0,7,0,0,7,0,0,8
8,0,0,7,0,0,0,0,0,0,0,0,8,0,0,7,0,0,7,0,0,7,0,0,8
8,0,0,7,0,0,0,0,0,0,0,0,8,0,0,7,0,0,7,0,0,7,0,0,8
8,0,0,7,0,7,7,7,7,0,0,0,8,0,0,7,0,0,7,0,0,7,0,0,8
8,0,0,7,0,0,0,0,7,0,0,0,8,0,0,7,0,0,0,0,0,7,0,0,8
8,0,0,7,0,0,0,0,7,0,0,0,8,0,0,7,0,0,0,0,0,7,0,0,8
8,0,0,7,7,7,0,0,7,0,0,0,8,0,0,7,7,7,7,7,7,7,0,0,8
8,0,0,0,0,0,0,0,7,0,0,0,8,0,0,0,0,0,0,0,0,0,0,0,8
8,0,0,0,0,0,0,0,7,0,0,0,8,0,0,0,0,0,0,0,0,0,0,0,8
8,7,7,7,7,7,7,7,7,0,0,0,8,8,8,8,8,0,0,0,8,8,8,8,8
8,0,0,0,0,0,0,0,0,0,0,0,8,0,0,0,0,0,0,0,0,0,0,0,8
8,0,0,0,0,0,0,0,0,0,0,0,8,0,0,0,0,0,0,0,0,0,0,0,8
8,0,0,0,0,0,0,0,0,0,0,0,8,0,0,0,0,0,0,0,0,0,0,0,8
8,0,0,0,0,0,1,0,0,0,0,0,8,0,0,0,0,0,2,0,0,0,0,0,8
8,0,0,0,0,0,0,0,0,0,0,0,8,0,0,0,0,0,0,0,0,0,0,0,8
8,0,0,0,0,0,0,0,0,0,0,0,8,0,0,0,0,0,0,0,0,0,0,0,8
8,0,0,0,0,0,0,0,0,0,0,0,8,0,0,0,0,0,0,0,0,0,0,0,8
8,8,8,8,8,8,8,8,8,8,8,8,8,8,8,8,8,8,8,8,8,8,8,8,8
